{
  "app-id": "org.GreatGodvin.hello",
  "runtime": "org.freedesktop.Platform",
  "runtime-version": "21.08",
  "sdk": "org.freedesktop.Sdk",
  "command": "hello",
  "modules": [
    {
      "name": "libhello",
      "buildsystem": "meson",
      "sources": [
        {
          "type": "git",
          "url": "https://gitlab.com/GreatGodvin/libhello.git"
        }
      ]
     },
    {
      "name": "hello",
      "buildsystem": "meson",
      "sources": [
        {
          "type": "git",
          "url": "https://gitlab.com/GreatGodvin/hello.git"
        }
      ]
    }
  ]
}
